PCBNEW-LibModule-V1  2018-08-10 16:03:55
# encoding utf-8
Units mm
$INDEX
0154001.DRT
$EndINDEX
$MODULE 0154001.DRT
Po 0 0 0 15 5b6da95b 00000000 ~~
Li 0154001.DRT
Cd 0154001.DRT
Kw Fuse
Sc 0
At SMD
AR 
Op 0 0 0
T0 -0.7487 0.247 1.27 1.27 0 0.254 N V 21 N "F**"
T1 -0.7487 0.247 1.27 1.27 0 0.254 N I 21 N "0154001.DRT"
DS -4.8641 -2.5146 4.8641 -2.5146 0.254 24
DS 4.8641 -2.5146 4.8641 2.5146 0.254 24
DS 4.8641 2.5146 -4.8641 2.5146 0.254 24
DS -4.8641 2.5146 -4.8641 -2.5146 0.254 24
DS -4.8641 -2.5146 4.8641 -2.5146 0.254 21
DS -4.8641 2.5146 4.8641 2.5146 0.254 21
$PAD
Po -3.1877 0
Sh "1" R 3.81 4.2418 0 0 900
At SMD N 00888000
Ne 0 ""
$EndPAD
$PAD
Po 3.1877 0
Sh "2" R 3.81 4.2418 0 0 900
At SMD N 00888000
Ne 0 ""
$EndPAD
$EndMODULE 0154001.DRT
$EndLIBRARY
