PCBNEW-LibModule-V1  2018-11-19 21:56:08
# encoding utf-8
Units mm
$INDEX
11065062
$EndINDEX
$MODULE 11065062
Po 0 0 0 15 5bf33178 00000000 ~~
Li 11065062
Cd 1-106506-2-2
Kw Connector
Sc 0
At STD
AR 
Op 0 0 0
T0 9.590 8.285 1.27 1.27 0 0.254 N V 21 N "J**"
T1 9.590 8.285 1.27 1.27 0 0.254 N I 21 N "11065062"
DS -10.01 -2.13 29.19 -2.13 0.2 24
DS 29.19 -2.13 29.19 12.87 0.2 24
DS 29.19 12.87 -10.01 12.87 0.2 24
DS -10.01 12.87 -10.01 -2.13 0.2 24
DS -2.76 12.87 21.94 12.87 0.2 24
DS 21.94 12.87 21.94 19.07 0.2 24
DS 21.94 19.07 -2.76 19.07 0.2 24
DS -2.76 19.07 -2.76 12.87 0.2 24
DS -10.01 -2.13 29.19 -2.13 0.1 21
DS 29.19 -2.13 29.19 12.87 0.1 21
DS 29.19 12.87 -10.01 12.87 0.1 21
DS -10.01 12.87 -10.01 -2.13 0.1 21
DS -11.01 -3.5 30.19 -3.5 0.1 24
DS 30.19 -3.5 30.19 20.07 0.1 24
DS 30.19 20.07 -11.01 20.07 0.1 24
DS -11.01 20.07 -11.01 -3.5 0.1 24
DS 0 -2.4 0 -2.4 0.1 21
DS 0 -2.5 0 -2.5 0.1 21
DA 4.1633363423443E-17 -2.45 0.000 -2.4 1800 0.1 21
DA 4.1633363423443E-17 -2.45 0.000 -2.5 1800 0.1 21
$PAD
Po 0.000 -0
Sh "1" C 1.300 1.300 0 0 900
Dr 0.8 0 0
At STD N 00E0FFFF
Ne 0 ""
$EndPAD
$PAD
Po 2.740 -0
Sh "2" C 1.300 1.300 0 0 900
Dr 0.8 0 0
At STD N 00E0FFFF
Ne 0 ""
$EndPAD
$PAD
Po 5.480 -0
Sh "3" C 1.300 1.300 0 0 900
Dr 0.8 0 0
At STD N 00E0FFFF
Ne 0 ""
$EndPAD
$PAD
Po 8.220 -0
Sh "4" C 1.300 1.300 0 0 900
Dr 0.8 0 0
At STD N 00E0FFFF
Ne 0 ""
$EndPAD
$PAD
Po 10.960 -0
Sh "5" C 1.300 1.300 0 0 900
Dr 0.8 0 0
At STD N 00E0FFFF
Ne 0 ""
$EndPAD
$PAD
Po 13.700 -0
Sh "6" C 1.300 1.300 0 0 900
Dr 0.8 0 0
At STD N 00E0FFFF
Ne 0 ""
$EndPAD
$PAD
Po 16.440 -0
Sh "7" C 1.300 1.300 0 0 900
Dr 0.8 0 0
At STD N 00E0FFFF
Ne 0 ""
$EndPAD
$PAD
Po 19.180 -0
Sh "8" C 1.300 1.300 0 0 900
Dr 0.8 0 0
At STD N 00E0FFFF
Ne 0 ""
$EndPAD
$PAD
Po 1.370 2.54
Sh "9" C 1.300 1.300 0 0 900
Dr 0.8 0 0
At STD N 00E0FFFF
Ne 0 ""
$EndPAD
$PAD
Po 4.110 2.54
Sh "10" C 1.300 1.300 0 0 900
Dr 0.8 0 0
At STD N 00E0FFFF
Ne 0 ""
$EndPAD
$PAD
Po 6.850 2.54
Sh "11" C 1.300 1.300 0 0 900
Dr 0.8 0 0
At STD N 00E0FFFF
Ne 0 ""
$EndPAD
$PAD
Po 9.590 2.54
Sh "12" C 1.300 1.300 0 0 900
Dr 0.8 0 0
At STD N 00E0FFFF
Ne 0 ""
$EndPAD
$PAD
Po 12.330 2.54
Sh "13" C 1.300 1.300 0 0 900
Dr 0.8 0 0
At STD N 00E0FFFF
Ne 0 ""
$EndPAD
$PAD
Po 15.070 2.54
Sh "14" C 1.300 1.300 0 0 900
Dr 0.8 0 0
At STD N 00E0FFFF
Ne 0 ""
$EndPAD
$PAD
Po 17.810 2.54
Sh "15" C 1.300 1.300 0 0 900
Dr 0.8 0 0
At STD N 00E0FFFF
Ne 0 ""
$EndPAD
$PAD
Po -7.060 1.27
Sh "16" C 4.800 4.800 0 0 900
Dr 3.2 0 0
At STD N 00E0FFFF
Ne 0 ""
$EndPAD
$PAD
Po 26.240 1.27
Sh "17" C 4.800 4.800 0 0 900
Dr 3.2 0 0
At STD N 00E0FFFF
Ne 0 ""
$EndPAD
$EndMODULE 11065062
$EndLIBRARY
