PCBNEW-LibModule-V1  2018-11-19 21:55:59
# encoding utf-8
Units mm
$INDEX
11065052
$EndINDEX
$MODULE 11065052
Po 0 0 0 15 5bf3316f 00000000 ~~
Li 11065052
Cd 1-106505-2-2
Kw Connector
Sc 0
At STD
AR 
Op 0 0 0
T0 5.480 8.47 1.27 1.27 0 0.254 N V 21 N "J**"
T1 5.480 8.47 1.27 1.27 0 0.254 N I 21 N "11065052"
DS -9.97 -2.13 20.93 -2.13 0.2 24
DS 20.93 -2.13 20.93 12.87 0.2 24
DS 20.93 12.87 -9.97 12.87 0.2 24
DS -9.97 12.87 -9.97 -2.13 0.2 24
DS -9.97 -2.13 20.93 -2.13 0.1 21
DS 20.93 -2.13 20.93 12.87 0.1 21
DS 20.93 12.87 -9.97 12.87 0.1 21
DS -9.97 12.87 -9.97 -2.13 0.1 21
DS -10.97 -3.13 21.93 -3.13 0.1 24
DS 21.93 -3.13 21.93 20.07 0.1 24
DS 21.93 20.07 -10.97 20.07 0.1 24
DS -10.97 20.07 -10.97 -3.13 0.1 24
DS -2.67 12.87 -2.67 19.07 0.2 24
DS -2.67 19.07 13.63 19.07 0.2 24
DS 13.63 19.07 13.63 12.87 0.2 24
$PAD
Po 0.000 -0
Sh "1" C 1.300 1.300 0 0 900
Dr 0.8 0 0
At STD N 00E0FFFF
Ne 0 ""
$EndPAD
$PAD
Po 2.740 -0
Sh "2" C 1.300 1.300 0 0 900
Dr 0.8 0 0
At STD N 00E0FFFF
Ne 0 ""
$EndPAD
$PAD
Po 5.480 -0
Sh "3" C 1.300 1.300 0 0 900
Dr 0.8 0 0
At STD N 00E0FFFF
Ne 0 ""
$EndPAD
$PAD
Po 8.220 -0
Sh "4" C 1.300 1.300 0 0 900
Dr 0.8 0 0
At STD N 00E0FFFF
Ne 0 ""
$EndPAD
$PAD
Po 10.960 -0
Sh "5" C 1.300 1.300 0 0 900
Dr 0.8 0 0
At STD N 00E0FFFF
Ne 0 ""
$EndPAD
$PAD
Po 1.370 2.54
Sh "6" C 1.300 1.300 0 0 900
Dr 0.8 0 0
At STD N 00E0FFFF
Ne 0 ""
$EndPAD
$PAD
Po 4.110 2.54
Sh "7" C 1.300 1.300 0 0 900
Dr 0.8 0 0
At STD N 00E0FFFF
Ne 0 ""
$EndPAD
$PAD
Po 6.850 2.54
Sh "8" C 1.300 1.300 0 0 900
Dr 0.8 0 0
At STD N 00E0FFFF
Ne 0 ""
$EndPAD
$PAD
Po 9.590 2.54
Sh "9" C 1.300 1.300 0 0 900
Dr 0.8 0 0
At STD N 00E0FFFF
Ne 0 ""
$EndPAD
$PAD
Po -7.020 1.27
Sh "MH1" C 4.800 4.800 0 0 900
Dr 3.2 0 0
At STD N 00E0FFFF
Ne 0 ""
$EndPAD
$PAD
Po 17.980 1.27
Sh "MH2" C 4.800 4.800 0 0 900
Dr 3.2 0 0
At STD N 00E0FFFF
Ne 0 ""
$EndPAD
$EndMODULE 11065052
$EndLIBRARY
