PCBNEW-LibModule-V1  2018-12-19 21:11:09
# encoding utf-8
Units mm
$INDEX
1-406541-1_1
$EndINDEX
$MODULE 1-406541-1_1
Po 0 0 0 15 5c1ab3ed 00000000 ~~
Li 1-406541-1_1
Cd 1-406541-1_1
Kw Connector
Sc 0
At STD
AR 
Op 0 0 0
T0 6.66118 -6.55321 1.27 1.27 0 0.254 N V 21 N "J**"
T1 6.66118 -6.55321 1.27 1.27 0 0.254 N I 21 N "1-406541-1_1"
DS 0 -15.75 17.27 -15.75 0.2 24
DS 17.27 -15.75 17.27 0 0.2 24
DS 17.27 0 0 0 0.2 24
DS 0 0 0 -15.75 0.2 24
DS 0 -15.75 17.27 -15.75 0.2 21
DS 0 0 17.27 0 0.2 21
DC 18.145 -7.437 17.96 -7.437 0.254 21
$PAD
Po 12.215 -7.82
Sh "1" C 1.47 1.47 0 0 900
Dr 0.97 0 0
At STD N 00E0FFFF
Ne 0 ""
$EndPAD
$PAD
Po 11.195 -9.6
Sh "2" C 1.47 1.47 0 0 900
Dr 0.97 0 0
At STD N 00E0FFFF
Ne 0 ""
$EndPAD
$PAD
Po 10.175 -7.82
Sh "3" C 1.47 1.47 0 0 900
Dr 0.97 0 0
At STD N 00E0FFFF
Ne 0 ""
$EndPAD
$PAD
Po 9.155 -9.6
Sh "4" C 1.47 1.47 0 0 900
Dr 0.97 0 0
At STD N 00E0FFFF
Ne 0 ""
$EndPAD
$PAD
Po 8.135 -7.82
Sh "5" C 1.47 1.47 0 0 900
Dr 0.97 0 0
At STD N 00E0FFFF
Ne 0 ""
$EndPAD
$PAD
Po 7.115 -9.6
Sh "6" C 1.47 1.47 0 0 900
Dr 0.97 0 0
At STD N 00E0FFFF
Ne 0 ""
$EndPAD
$PAD
Po 6.095 -7.82
Sh "7" C 1.47 1.47 0 0 900
Dr 0.97 0 0
At STD N 00E0FFFF
Ne 0 ""
$EndPAD
$PAD
Po 5.075 -9.6
Sh "8" C 1.47 1.47 0 0 900
Dr 0.97 0 0
At STD N 00E0FFFF
Ne 0 ""
$EndPAD
$PAD
Po 2.285 -5.28
Sh "9" C 5.03 5.03 0 0 900
Dr 3.33 0 0
At STD N 00E0FFFF
Ne 0 ""
$EndPAD
$PAD
Po 14.985 -5.28
Sh "10" C 5.03 5.03 0 0 900
Dr 3.33 0 0
At STD N 00E0FFFF
Ne 0 ""
$EndPAD
$PAD
Po 16.765 -8.71
Sh "11" C 2.5 2.5 0 0 900
Dr 1.65 0 0
At STD N 00E0FFFF
Ne 0 ""
$EndPAD
$PAD
Po 0.505 -8.71
Sh "12" C 2.5 2.5 0 0 900
Dr 1.65 0 0
At STD N 00E0FFFF
Ne 0 ""
$EndPAD
$EndMODULE 1-406541-1_1
$EndLIBRARY
