PCBNEW-LibModule-V1  2018-10-28 14:18:22
# encoding utf-8
Units mm
$INDEX
23019949
$EndINDEX
$MODULE 23019949
Po 0 0 0 15 5bd5c52e 00000000 ~~
Li 23019949
Cd 2301994-9
Kw Connector
Sc 0
At STD
AR 
Op 0 0 0
T0 0.000 0.075 1.27 1.27 0 0.254 N V 21 N "J**"
T1 0.000 0.075 1.27 1.27 0 0.254 N I 21 N "23019949"
DS -7.95 -10.6 7.95 -10.6 0.2 24
DS 7.95 -10.6 7.95 10.75 0.2 24
DS 7.95 10.75 -7.95 10.75 0.2 24
DS -7.95 10.75 -7.95 -10.6 0.2 24
DS -10.05 -11.6 10.05 -11.6 0.1 24
DS 10.05 -11.6 10.05 11.75 0.1 24
DS 10.05 11.75 -10.05 11.75 0.1 24
DS -10.05 11.75 -10.05 -11.6 0.1 24
DS -7.95 -4.55 -7.95 -10.6 0.1 21
DS -7.95 -10.6 7.95 -10.6 0.1 21
DS 7.95 -10.6 7.95 -4.55 0.1 21
DS -7.95 -1.55 -7.95 10.75 0.1 21
DS -7.95 10.75 7.95 10.75 0.1 21
DS 7.95 10.75 7.95 -1.55 0.1 21
DS -8.8 -6.45 -8.8 -6.45 0.2 21
DS -8.8 -6.25 -8.8 -6.25 0.2 21
DA -8.8 -6.35 -8.800 -6.45 1800 0.2 21
DA -8.8 -6.35 -8.800 -6.25 1800 0.2 21
$PAD
Po -4.445 -6.35
Sh "1" R 1.4 1.4 0 0 900
Dr 0.9 0 0
At STD N 00E0FFFF
Ne 0 ""
$EndPAD
$PAD
Po -3.175 -8.89
Sh "2" C 1.4 1.4 0 0 900
Dr 0.9 0 0
At STD N 00E0FFFF
Ne 0 ""
$EndPAD
$PAD
Po -1.905 -6.35
Sh "3" C 1.4 1.4 0 0 900
Dr 0.9 0 0
At STD N 00E0FFFF
Ne 0 ""
$EndPAD
$PAD
Po -0.635 -8.89
Sh "4" C 1.4 1.4 0 0 900
Dr 0.9 0 0
At STD N 00E0FFFF
Ne 0 ""
$EndPAD
$PAD
Po 0.635 -6.35
Sh "5" C 1.4 1.4 0 0 900
Dr 0.9 0 0
At STD N 00E0FFFF
Ne 0 ""
$EndPAD
$PAD
Po 1.905 -8.89
Sh "6" C 1.4 1.4 0 0 900
Dr 0.9 0 0
At STD N 00E0FFFF
Ne 0 ""
$EndPAD
$PAD
Po 3.175 -6.35
Sh "7" C 1.4 1.4 0 0 900
Dr 0.9 0 0
At STD N 00E0FFFF
Ne 0 ""
$EndPAD
$PAD
Po 4.445 -8.89
Sh "8" C 1.4 1.4 0 0 900
Dr 0.9 0 0
At STD N 00E0FFFF
Ne 0 ""
$EndPAD
$PAD
Po -6.640 4.06
Sh "9" C 1.53 1.53 0 0 900
Dr 1.02 0 0
At STD N 00E0FFFF
Ne 0 ""
$EndPAD
$PAD
Po -4.100 4.06
Sh "10" C 1.53 1.53 0 0 900
Dr 1.02 0 0
At STD N 00E0FFFF
Ne 0 ""
$EndPAD
$PAD
Po 4.100 4.06
Sh "11" C 1.53 1.53 0 0 900
Dr 1.02 0 0
At STD N 00E0FFFF
Ne 0 ""
$EndPAD
$PAD
Po 6.640 4.06
Sh "12" C 1.53 1.53 0 0 900
Dr 1.02 0 0
At STD N 00E0FFFF
Ne 0 ""
$EndPAD
$PAD
Po -7.850 -3.05
Sh "13" C 2.4000000000000004 2.4000000000000004 0 0 900
Dr 1.6 0 0
At STD N 00E0FFFF
Ne 0 ""
$EndPAD
$PAD
Po 7.850 -3.05
Sh "14" C 2.4000000000000004 2.4000000000000004 0 0 900
Dr 1.6 0 0
At STD N 00E0FFFF
Ne 0 ""
$EndPAD
$PAD
Po -5.715 -0
Sh "15" C 1.625 1.625 0 0 900
Dr 3.25 0 0
At STD N 00E0FFFF
Ne 0 ""
$EndPAD
$PAD
Po 5.715 -0
Sh "16" C 1.625 1.625 0 0 900
Dr 3.25 0 0
At STD N 00E0FFFF
Ne 0 ""
$EndPAD
$EndMODULE 23019949
$EndLIBRARY
