PCBNEW-LibModule-V1  2018-10-07 00:53:27
# encoding utf-8
Units mm
$INDEX
618015330923
$EndINDEX
$MODULE 618015330923
Po 0 0 0 15 5bb94af7 00000000 ~~
Li 618015330923
Cd 618015330923
Kw Connector
Sc 0
At STD
AR 
Op 0 0 0
T0 -0.3681 -3.83652 1.27 1.27 0 0.254 N V 21 N "J**"
T1 -0.3681 -3.83652 1.27 1.27 0 0.254 N I 21 N "618015330923"
DS -15.4 -16.3 15.4 -16.3 0.2 24
DS 15.4 -16.3 15.4 0 0.2 24
DS 15.4 0 -15.4 0 0.2 24
DS -15.4 0 -15.4 -16.3 0.2 24
DS -8.15 0 -8.15 6 0.2 24
DS -8.15 6 8.15 6 0.2 24
DS 8.15 6 8.15 0 0.2 24
DS -15.4 -16.3 -15.4 0 0.2 21
DS -15.4 0 -8.15 0 0.2 21
DS -8.15 0 -8.15 6 0.2 21
DS -8.15 6 8.15 6 0.2 21
DS 8.15 6 8.15 0 0.2 21
DS 8.15 0 15.4 0 0.2 21
DS 15.4 0 15.4 -16.3 0.2 21
DS 15.4 -16.3 -15.4 -16.3 0.2 21
DC 3.955 -17.329 3.85 -17.329 0.254 21
$PAD
Po 3.99 -13.97
Sh "1" C 1.55 1.55 0 0 900
Dr 1 0 0
At STD N 00E0FFFF
Ne 0 ""
$EndPAD
$PAD
Po 1.71 -13.97
Sh "2" C 1.55 1.55 0 0 900
Dr 1 0 0
At STD N 00E0FFFF
Ne 0 ""
$EndPAD
$PAD
Po -0.57 -13.97
Sh "3" C 1.55 1.55 0 0 900
Dr 1 0 0
At STD N 00E0FFFF
Ne 0 ""
$EndPAD
$PAD
Po -2.85 -13.97
Sh "4" C 1.55 1.55 0 0 900
Dr 1 0 0
At STD N 00E0FFFF
Ne 0 ""
$EndPAD
$PAD
Po -5.13 -13.97
Sh "5" C 1.55 1.55 0 0 900
Dr 1 0 0
At STD N 00E0FFFF
Ne 0 ""
$EndPAD
$PAD
Po 5.13 -11.43
Sh "6" C 1.55 1.55 0 0 900
Dr 1 0 0
At STD N 00E0FFFF
Ne 0 ""
$EndPAD
$PAD
Po 2.85 -11.43
Sh "7" C 1.55 1.55 0 0 900
Dr 1 0 0
At STD N 00E0FFFF
Ne 0 ""
$EndPAD
$PAD
Po 0.57 -11.43
Sh "8" C 1.55 1.55 0 0 900
Dr 1 0 0
At STD N 00E0FFFF
Ne 0 ""
$EndPAD
$PAD
Po -1.71 -11.43
Sh "9" C 1.55 1.55 0 0 900
Dr 1 0 0
At STD N 00E0FFFF
Ne 0 ""
$EndPAD
$PAD
Po -3.99 -11.43
Sh "10" C 1.55 1.55 0 0 900
Dr 1 0 0
At STD N 00E0FFFF
Ne 0 ""
$EndPAD
$PAD
Po 3.99 -8.89
Sh "11" C 1.55 1.55 0 0 900
Dr 1 0 0
At STD N 00E0FFFF
Ne 0 ""
$EndPAD
$PAD
Po 1.71 -8.89
Sh "12" C 1.55 1.55 0 0 900
Dr 1 0 0
At STD N 00E0FFFF
Ne 0 ""
$EndPAD
$PAD
Po -0.57 -8.89
Sh "13" C 1.55 1.55 0 0 900
Dr 1 0 0
At STD N 00E0FFFF
Ne 0 ""
$EndPAD
$PAD
Po -2.85 -8.89
Sh "14" C 1.55 1.55 0 0 900
Dr 1 0 0
At STD N 00E0FFFF
Ne 0 ""
$EndPAD
$PAD
Po -5.13 -8.89
Sh "15" C 1.55 1.55 0 0 900
Dr 1 0 0
At STD N 00E0FFFF
Ne 0 ""
$EndPAD
$PAD
Po -12.5 -11.43
Sh "16" C 4.8 4.8 0 0 900
Dr 3.2 0 0
At STD N 00E0FFFF
Ne 0 ""
$EndPAD
$PAD
Po 12.5 -11.43
Sh "17" C 4.8 4.8 0 0 900
Dr 3.2 0 0
At STD N 00E0FFFF
Ne 0 ""
$EndPAD
$EndMODULE 618015330923
$EndLIBRARY
