PCBNEW-LibModule-V1  2018-11-22 21:06:53
# encoding utf-8
Units mm
$INDEX
SHDR2W80P0X254_1X2_512X580X1175P
$EndINDEX
$MODULE SHDR2W80P0X254_1X2_512X580X1175P
Po 0 0 0 15 5bf71a6d 00000000 ~~
Li SHDR2W80P0X254_1X2_512X580X1175P
Cd 61900211121
Kw Connector
Sc 0
At STD
AR 
Op 0 0 0
T0 0 0 1.27 1.27 0 0.254 N V 21 N "J**"
T1 0 0 1.27 1.27 0 0.254 N I 21 N "SHDR2W80P0X254_1X2_512X580X1175P"
DS -1.69 3.6 -1.69 -2.85 0.05 24
DS -1.69 -2.85 4.08 -2.85 0.05 24
DS 4.08 -2.85 4.08 3.6 0.05 24
DS 4.08 3.6 -1.69 3.6 0.05 24
DS -1.44 3.35 -1.44 -2.6 0.1 24
DS -1.44 -2.6 3.83 -2.6 0.1 24
DS 3.83 -2.6 3.83 3.35 0.1 24
DS 3.83 3.35 -1.44 3.35 0.1 24
DS 0 3.35 3.83 3.35 0.2 21
DS 3.83 3.35 3.83 -2.6 0.2 21
DS 3.83 -2.6 -1.44 -2.6 0.2 21
DS -1.44 -2.6 -1.44 0 0.2 21
$PAD
Po 0 0
Sh "1" R 1.5 1.5 0 0 900
Dr 1 0 0
At STD N 00E0FFFF
Ne 0 ""
$EndPAD
$PAD
Po 2.54 0
Sh "2" C 1.5 1.5 0 0 900
Dr 1 0 0
At STD N 00E0FFFF
Ne 0 ""
$EndPAD
$EndMODULE SHDR2W80P0X254_1X2_512X580X1175P
$EndLIBRARY
