PCBNEW-LibModule-V1  2018-10-28 14:27:15
# encoding utf-8
Units mm
$INDEX
8LCM025S-304B-XX
$EndINDEX
$MODULE 8LCM025S-304B-XX
Po 0 0 0 15 5bd5c743 00000000 ~~
Li 8LCM025S-304B-XX
Cd 8LCM025S-304B-XX
Kw Connector
Sc 0
At STD
AR 
Op 0 0 0
T0 -11.89 18.979 1.27 1.27 0 0.254 N V 21 N "J**"
T1 -11.89 18.979 1.27 1.27 0 0.254 N I 21 N "8LCM025S-304B-XX"
DS -26.545 5.84 26.545 5.84 0.25 24
DS 26.545 5.84 26.545 20.6 0.25 24
DS 26.545 20.6 -26.545 20.6 0.25 24
DS -26.545 20.6 -26.545 5.84 0.25 24
DS -19.48 5.84 -19.48 0 0.25 24
DS -19.48 0 19.48 0 0.25 24
DS 19.48 0 19.48 5.84 0.25 24
DS -26.545 20.6 -26.545 5.84 0.25 21
DS -26.545 5.84 26.545 5.84 0.25 21
DS 26.545 5.84 26.545 20.6 0.25 21
DS 26.545 20.6 -26.545 20.6 0.25 21
DS -19.48 5.84 -19.48 0 0.25 21
DS -19.48 0 19.48 0 0.25 21
DS 19.48 0 19.48 5.84 0.25 21
DC 16.589 21.358 16.367 21.358 0.254 21
$PAD
Po 16.62 18.58
Sh "1" C 1.8 1.8 0 0 900
Dr 1.19 0 0
At STD N 00E0FFFF
Ne 0 ""
$EndPAD
$PAD
Po 13.85 18.58
Sh "2" C 1.8 1.8 0 0 900
Dr 1.19 0 0
At STD N 00E0FFFF
Ne 0 ""
$EndPAD
$PAD
Po 11.08 18.58
Sh "3" C 1.8 1.8 0 0 900
Dr 1.19 0 0
At STD N 00E0FFFF
Ne 0 ""
$EndPAD
$PAD
Po 8.31 18.58
Sh "4" C 1.8 1.8 0 0 900
Dr 1.19 0 0
At STD N 00E0FFFF
Ne 0 ""
$EndPAD
$PAD
Po 5.54 18.58
Sh "5" C 1.8 1.8 0 0 900
Dr 1.19 0 0
At STD N 00E0FFFF
Ne 0 ""
$EndPAD
$PAD
Po 2.77 18.58
Sh "6" C 1.8 1.8 0 0 900
Dr 1.19 0 0
At STD N 00E0FFFF
Ne 0 ""
$EndPAD
$PAD
Po 0 18.58
Sh "7" C 1.8 1.8 0 0 900
Dr 1.19 0 0
At STD N 00E0FFFF
Ne 0 ""
$EndPAD
$PAD
Po -2.77 18.58
Sh "8" C 1.8 1.8 0 0 900
Dr 1.19 0 0
At STD N 00E0FFFF
Ne 0 ""
$EndPAD
$PAD
Po -5.54 18.58
Sh "9" C 1.8 1.8 0 0 900
Dr 1.19 0 0
At STD N 00E0FFFF
Ne 0 ""
$EndPAD
$PAD
Po -8.31 18.58
Sh "10" C 1.8 1.8 0 0 900
Dr 1.19 0 0
At STD N 00E0FFFF
Ne 0 ""
$EndPAD
$PAD
Po -11.08 18.58
Sh "11" C 1.8 1.8 0 0 900
Dr 1.19 0 0
At STD N 00E0FFFF
Ne 0 ""
$EndPAD
$PAD
Po -13.85 18.58
Sh "12" C 1.8 1.8 0 0 900
Dr 1.19 0 0
At STD N 00E0FFFF
Ne 0 ""
$EndPAD
$PAD
Po -16.62 18.58
Sh "13" C 1.8 1.8 0 0 900
Dr 1.19 0 0
At STD N 00E0FFFF
Ne 0 ""
$EndPAD
$PAD
Po 15.235 16.04
Sh "14" C 1.8 1.8 0 0 900
Dr 1.19 0 0
At STD N 00E0FFFF
Ne 0 ""
$EndPAD
$PAD
Po 12.465 16.04
Sh "15" C 1.8 1.8 0 0 900
Dr 1.19 0 0
At STD N 00E0FFFF
Ne 0 ""
$EndPAD
$PAD
Po 9.695 16.04
Sh "16" C 1.8 1.8 0 0 900
Dr 1.19 0 0
At STD N 00E0FFFF
Ne 0 ""
$EndPAD
$PAD
Po 6.925 16.04
Sh "17" C 1.8 1.8 0 0 900
Dr 1.19 0 0
At STD N 00E0FFFF
Ne 0 ""
$EndPAD
$PAD
Po 4.155 16.04
Sh "18" C 1.8 1.8 0 0 900
Dr 1.19 0 0
At STD N 00E0FFFF
Ne 0 ""
$EndPAD
$PAD
Po 1.385 16.04
Sh "19" C 1.8 1.8 0 0 900
Dr 1.19 0 0
At STD N 00E0FFFF
Ne 0 ""
$EndPAD
$PAD
Po -1.385 16.04
Sh "20" C 1.8 1.8 0 0 900
Dr 1.19 0 0
At STD N 00E0FFFF
Ne 0 ""
$EndPAD
$PAD
Po -4.155 16.04
Sh "21" C 1.8 1.8 0 0 900
Dr 1.19 0 0
At STD N 00E0FFFF
Ne 0 ""
$EndPAD
$PAD
Po -6.925 16.04
Sh "22" C 1.8 1.8 0 0 900
Dr 1.19 0 0
At STD N 00E0FFFF
Ne 0 ""
$EndPAD
$PAD
Po -9.695 16.04
Sh "23" C 1.8 1.8 0 0 900
Dr 1.19 0 0
At STD N 00E0FFFF
Ne 0 ""
$EndPAD
$PAD
Po -12.465 16.04
Sh "24" C 1.8 1.8 0 0 900
Dr 1.19 0 0
At STD N 00E0FFFF
Ne 0 ""
$EndPAD
$PAD
Po -15.235 16.04
Sh "25" C 1.8 1.8 0 0 900
Dr 1.19 0 0
At STD N 00E0FFFF
Ne 0 ""
$EndPAD
$PAD
Po -23.52 17.46
Sh "26" C 4.5 4.5 0 0 900
Dr 3.2 0 0
At STD N 00E0FFFF
Ne 0 ""
$EndPAD
$PAD
Po 23.52 17.46
Sh "27" C 4.5 4.5 0 0 900
Dr 3.2 0 0
At STD N 00E0FFFF
Ne 0 ""
$EndPAD
$EndMODULE 8LCM025S-304B-XX
$EndLIBRARY
