PCBNEW-LibModule-V1  2017-12-12 18:28:17
# encoding utf-8
Units mm
$INDEX
ABM7-8.000MHZ-D2Y-T
$EndINDEX
$MODULE ABM7-8.000MHZ-D2Y-T
Po 0 0 0 15 5a301fc1 00000000 ~~
Li ABM7-8.000MHZ-D2Y-T
Cd ABM7-8.000MHZ-D2Y-T
Kw Crystal or Oscillator
Sc 0
At SMD
AR 
Op 0 0 0
T0 -0.232 0.054 1.27 1.27 0 0.254 N V 21 N "Y**"
T1 -0.232 0.054 1.27 1.27 0 0.254 N I 21 N "ABM7-8.000MHZ-D2Y-T"
DS -3 -1.75 3 -1.75 0.254 24
DS 3 -1.75 3 1.75 0.254 24
DS 3 1.75 -3 1.75 0.254 24
DS -3 1.75 -3 -1.75 0.254 24
DS -3 -1.75 3 -1.75 0.254 21
DS -3 1.75 3 1.75 0.254 21
$PAD
Po -2.15 0
Sh "1" R 1.9 2.6 0 0 0
At SMD N 00888000
Ne 0 ""
$EndPAD
$PAD
Po 2.15 0
Sh "2" R 1.9 2.6 0 0 0
At SMD N 00888000
Ne 0 ""
$EndPAD
$EndMODULE ABM7-8.000MHZ-D2Y-T
$EndLIBRARY
