PCBNEW-LibModule-V1  2018-12-10 20:10:54
# encoding utf-8
Units mm
$INDEX
PG-TO252-5-11
$EndINDEX
$MODULE PG-TO252-5-11
Po 0 0 0 15 5c0ec84e 00000000 ~~
Li PG-TO252-5-11
Cd PG-TO252-5-11
Kw MOSFET (N-Channel)
Sc 0
At SMD
AR 
Op 0 0 0
T0 -0.236 6.063 1.27 1.27 0 0.254 N V 21 N "Q**"
T1 -0.236 6.063 1.27 1.27 0 0.254 N I 21 N "PG-TO252-5-11"
DS -3.25 -2 3.25 -2 0.254 24
DS 3.25 -2 3.25 4.22 0.254 24
DS 3.25 4.22 -3.25 4.22 0.254 24
DS -3.25 4.22 -3.25 -2 0.254 24
DS -3.25 -2 -3.25 4.22 0.254 21
DS -3.25 4.22 3.25 4.22 0.254 21
DS 3.25 4.22 3.25 -2 0.254 21
DC -3.259 7.575 -3.39381 7.575 0.254 21
$PAD
Po -2.28 6.3
Sh "1" R 0.8 2.2 0 0 0
At SMD N 00888000
Ne 0 ""
$EndPAD
$PAD
Po -1.14 6.3
Sh "2" R 0.8 2.2 0 0 0
At SMD N 00888000
Ne 0 ""
$EndPAD
$PAD
Po 1.14 6.3
Sh "3" R 0.8 2.2 0 0 0
At SMD N 00888000
Ne 0 ""
$EndPAD
$PAD
Po 2.28 6.3
Sh "4" R 0.8 2.2 0 0 0
At SMD N 00888000
Ne 0 ""
$EndPAD
$PAD
Po 0 0
Sh "5" R 5.8 6.4 0 0 0
At SMD N 00888000
Ne 0 ""
$EndPAD
$EndMODULE PG-TO252-5-11
$EndLIBRARY
