PCBNEW-LibModule-V1  2018-08-08 17:32:00
# encoding utf-8
Units mm
$INDEX
CAPC1608X87N
$EndINDEX
$MODULE CAPC1608X87N
Po 0 0 0 15 5b6b1b00 00000000 ~~
Li CAPC1608X87N
Cd EIA 0603 (CB)
Kw Capacitor
Sc 0
At SMD
AR 
Op 0 0 0
T0 0 0 1.27 1.27 0 0.254 N V 21 N "C**"
T1 0 0 1.27 1.27 0 0.254 N I 21 N "CAPC1608X87N"
DS -1.24 -0.64 1.24 -0.64 0.05 24
DS 1.24 -0.64 1.24 0.64 0.05 24
DS 1.24 0.64 -1.24 0.64 0.05 24
DS -1.24 0.64 -1.24 -0.64 0.05 24
DS -0.8 -0.4 0.8 -0.4 0.1 24
DS 0.8 -0.4 0.8 0.4 0.1 24
DS 0.8 0.4 -0.8 0.4 0.1 24
DS -0.8 0.4 -0.8 -0.4 0.1 24
$PAD
Po -0.7 0
Sh "1" R 0.78 0.98 0 0 0
At SMD N 00888000
Ne 0 ""
$EndPAD
$PAD
Po 0.7 0
Sh "2" R 0.78 0.98 0 0 0
At SMD N 00888000
Ne 0 ""
$EndPAD
$EndMODULE CAPC1608X87N
$EndLIBRARY
