PCBNEW-LibModule-V1  2017-12-04 14:09:01
# encoding utf-8
Units mm
$INDEX
CAPC1608X87N
$EndINDEX
$MODULE CAPC1608X87N
Po 0 0 0 15 5a2556fd 00000000 ~~
Li CAPC1608X87N
Cd 603
Kw Capacitor
Sc 0
At SMD
AR 
Op 0 0 0
T0 0 0 1.27 1.27 0 0.254 N V 21 N "C**"
T1 0 0 1.27 1.27 0 0.254 N I 21 N "CAPC1608X87N"
DS -0.875 0.475 0.875 0.475 0.001 24
DS 0.875 0.475 0.875 -0.475 0.001 24
DS 0.875 -0.475 -0.875 -0.475 0.001 24
DS -0.875 -0.475 -0.875 0.475 0.001 24
DS -1.55 0.75 1.55 0.75 0.05 24
DS 1.55 0.75 1.55 -0.75 0.05 24
DS 1.55 -0.75 -1.55 -0.75 0.05 24
DS -1.55 -0.75 -1.55 0.75 0.05 24
DS 0 0.5 0 -0.5 0.05 24
DS -0.5 0 0.5 0 0.05 24
DS -0.8 0.4 0.8 0.4 0.1 24
DS 0.8 0.4 0.8 -0.4 0.1 24
DS 0.8 -0.4 -0.8 -0.4 0.1 24
DS -0.8 -0.4 -0.8 0.4 0.1 24
$PAD
Po -0.8 0
Sh "1" R 0.95 1 0 0 0
At SMD N 00888000
Ne 0 ""
$EndPAD
$PAD
Po 0.8 0
Sh "2" R 0.95 1 0 0 0
At SMD N 00888000
Ne 0 ""
$EndPAD
$EndMODULE CAPC1608X87N
$EndLIBRARY
