PCBNEW-LibModule-V1  2018-09-22 23:52:35
# encoding utf-8
Units mm
$INDEX
CAPC3225X280N
$EndINDEX
$MODULE CAPC3225X280N
Po 0 0 0 15 5ba6c7b3 00000000 ~~
Li CAPC3225X280N
Cd C1210 Height 2.5
Kw Capacitor
Sc 0
At SMD
AR 
Op 0 0 0
T0 0 0 1.27 1.27 0 0.254 N V 21 N "C**"
T1 0 0 1.27 1.27 0 0.254 N I 21 N "CAPC3225X280N"
DS -2.105 -1.56 2.105 -1.56 0.05 24
DS 2.105 -1.56 2.105 1.56 0.05 24
DS 2.105 1.56 -2.105 1.56 0.05 24
DS -2.105 1.56 -2.105 -1.56 0.05 24
DS -1.6 -1.25 1.6 -1.25 0.1 24
DS 1.6 -1.25 1.6 1.25 0.1 24
DS 1.6 1.25 -1.6 1.25 0.1 24
DS -1.6 1.25 -1.6 -1.25 0.1 24
DS 0 -1.15 0 1.15 0.2 21
$PAD
Po -1.35 0
Sh "1" R 1.21 2.82 0 0 0
At SMD N 00888000
Ne 0 ""
$EndPAD
$PAD
Po 1.35 0
Sh "2" R 1.21 2.82 0 0 0
At SMD N 00888000
Ne 0 ""
$EndPAD
$EndMODULE CAPC3225X280N
$EndLIBRARY
