PCBNEW-LibModule-V1  2018-08-14 15:48:13
# encoding utf-8
Units mm
$INDEX
DIP794W53P254L1930H508Q16N
$EndINDEX
$MODULE DIP794W53P254L1930H508Q16N
Po 0 0 0 15 5b72ebad 00000000 ~~
Li DIP794W53P254L1930H508Q16N
Cd N (R-PDIP-T16)
Kw Integrated Circuit
Sc 0
At STD
AR 
Op 0 0 0
T0 0 0 1.27 1.27 0 0.254 N V 21 N "IC**"
T1 0 0 1.27 1.27 0 0.254 N I 21 N "DIP794W53P254L1930H508Q16N"
DS -4.945 -10.095 4.945 -10.095 0.05 24
DS 4.945 -10.095 4.945 10.095 0.05 24
DS 4.945 10.095 -4.945 10.095 0.05 24
DS -4.945 10.095 -4.945 -10.095 0.05 24
DS -3.3 -9.845 3.3 -9.845 0.1 24
DS 3.3 -9.845 3.3 9.845 0.1 24
DS 3.3 9.845 -3.3 9.845 0.1 24
DS -3.3 9.845 -3.3 -9.845 0.1 24
DS -3.3 -8.575 -2.03 -9.845 0.1 24
DS -4.535 -9.845 3.3 -9.845 0.2 21
DS -3.3 9.845 3.3 9.845 0.2 21
$PAD
Po -3.97 -8.89
Sh "1" R 1.13 1.13 0 0 900
Dr 0.73 0 0
At STD N 00E0FFFF
Ne 0 ""
$EndPAD
$PAD
Po -3.97 -6.35
Sh "2" C 1.13 1.13 0 0 900
Dr 0.73 0 0
At STD N 00E0FFFF
Ne 0 ""
$EndPAD
$PAD
Po -3.97 -3.81
Sh "3" C 1.13 1.13 0 0 900
Dr 0.73 0 0
At STD N 00E0FFFF
Ne 0 ""
$EndPAD
$PAD
Po -3.97 -1.27
Sh "4" C 1.13 1.13 0 0 900
Dr 0.73 0 0
At STD N 00E0FFFF
Ne 0 ""
$EndPAD
$PAD
Po -3.97 1.27
Sh "5" C 1.13 1.13 0 0 900
Dr 0.73 0 0
At STD N 00E0FFFF
Ne 0 ""
$EndPAD
$PAD
Po -3.97 3.81
Sh "6" C 1.13 1.13 0 0 900
Dr 0.73 0 0
At STD N 00E0FFFF
Ne 0 ""
$EndPAD
$PAD
Po -3.97 6.35
Sh "7" C 1.13 1.13 0 0 900
Dr 0.73 0 0
At STD N 00E0FFFF
Ne 0 ""
$EndPAD
$PAD
Po -3.97 8.89
Sh "8" C 1.13 1.13 0 0 900
Dr 0.73 0 0
At STD N 00E0FFFF
Ne 0 ""
$EndPAD
$PAD
Po 3.97 8.89
Sh "9" C 1.13 1.13 0 0 900
Dr 0.73 0 0
At STD N 00E0FFFF
Ne 0 ""
$EndPAD
$PAD
Po 3.97 6.35
Sh "10" C 1.13 1.13 0 0 900
Dr 0.73 0 0
At STD N 00E0FFFF
Ne 0 ""
$EndPAD
$PAD
Po 3.97 3.81
Sh "11" C 1.13 1.13 0 0 900
Dr 0.73 0 0
At STD N 00E0FFFF
Ne 0 ""
$EndPAD
$PAD
Po 3.97 1.27
Sh "12" C 1.13 1.13 0 0 900
Dr 0.73 0 0
At STD N 00E0FFFF
Ne 0 ""
$EndPAD
$PAD
Po 3.97 -1.27
Sh "13" C 1.13 1.13 0 0 900
Dr 0.73 0 0
At STD N 00E0FFFF
Ne 0 ""
$EndPAD
$PAD
Po 3.97 -3.81
Sh "14" C 1.13 1.13 0 0 900
Dr 0.73 0 0
At STD N 00E0FFFF
Ne 0 ""
$EndPAD
$PAD
Po 3.97 -6.35
Sh "15" C 1.13 1.13 0 0 900
Dr 0.73 0 0
At STD N 00E0FFFF
Ne 0 ""
$EndPAD
$PAD
Po 3.97 -8.89
Sh "16" C 1.13 1.13 0 0 900
Dr 0.73 0 0
At STD N 00E0FFFF
Ne 0 ""
$EndPAD
$EndMODULE DIP794W53P254L1930H508Q16N
$EndLIBRARY
