PCBNEW-LibModule-V1  2018-08-14 16:51:55
# encoding utf-8
Units mm
$INDEX
SOIC127P600X175-14N
$EndINDEX
$MODULE SOIC127P600X175-14N
Po 0 0 0 15 5b72fa9b 00000000 ~~
Li SOIC127P600X175-14N
Cd D(R-PDSO-G14)
Kw Integrated Circuit
Sc 0
At SMD
AR 
Op 0 0 0
T0 0 0 1.27 1.27 0 0.254 N V 21 N "IC**"
T1 0 0 1.27 1.27 0 0.254 N I 21 N "SOIC127P600X175-14N"
DS -3.725 -4.625 3.725 -4.625 0.05 24
DS 3.725 -4.625 3.725 4.625 0.05 24
DS 3.725 4.625 -3.725 4.625 0.05 24
DS -3.725 4.625 -3.725 -4.625 0.05 24
DS -1.95 -4.325 1.95 -4.325 0.1 24
DS 1.95 -4.325 1.95 4.325 0.1 24
DS 1.95 4.325 -1.95 4.325 0.1 24
DS -1.95 4.325 -1.95 -4.325 0.1 24
DS -1.95 -3.055 -0.68 -4.325 0.1 24
DS -1.6 -4.325 1.6 -4.325 0.2 21
DS 1.6 -4.325 1.6 4.325 0.2 21
DS 1.6 4.325 -1.6 4.325 0.2 21
DS -1.6 4.325 -1.6 -4.325 0.2 21
DS -3.475 -4.485 -1.95 -4.485 0.2 21
$PAD
Po -2.712 -3.81
Sh "1" R 0.65 1.525 0 0 900
At SMD N 00888000
Ne 0 ""
$EndPAD
$PAD
Po -2.712 -2.54
Sh "2" R 0.65 1.525 0 0 900
At SMD N 00888000
Ne 0 ""
$EndPAD
$PAD
Po -2.712 -1.27
Sh "3" R 0.65 1.525 0 0 900
At SMD N 00888000
Ne 0 ""
$EndPAD
$PAD
Po -2.712 0
Sh "4" R 0.65 1.525 0 0 900
At SMD N 00888000
Ne 0 ""
$EndPAD
$PAD
Po -2.712 1.27
Sh "5" R 0.65 1.525 0 0 900
At SMD N 00888000
Ne 0 ""
$EndPAD
$PAD
Po -2.712 2.54
Sh "6" R 0.65 1.525 0 0 900
At SMD N 00888000
Ne 0 ""
$EndPAD
$PAD
Po -2.712 3.81
Sh "7" R 0.65 1.525 0 0 900
At SMD N 00888000
Ne 0 ""
$EndPAD
$PAD
Po 2.712 3.81
Sh "8" R 0.65 1.525 0 0 900
At SMD N 00888000
Ne 0 ""
$EndPAD
$PAD
Po 2.712 2.54
Sh "9" R 0.65 1.525 0 0 900
At SMD N 00888000
Ne 0 ""
$EndPAD
$PAD
Po 2.712 1.27
Sh "10" R 0.65 1.525 0 0 900
At SMD N 00888000
Ne 0 ""
$EndPAD
$PAD
Po 2.712 0
Sh "11" R 0.65 1.525 0 0 900
At SMD N 00888000
Ne 0 ""
$EndPAD
$PAD
Po 2.712 -1.27
Sh "12" R 0.65 1.525 0 0 900
At SMD N 00888000
Ne 0 ""
$EndPAD
$PAD
Po 2.712 -2.54
Sh "13" R 0.65 1.525 0 0 900
At SMD N 00888000
Ne 0 ""
$EndPAD
$PAD
Po 2.712 -3.81
Sh "14" R 0.65 1.525 0 0 900
At SMD N 00888000
Ne 0 ""
$EndPAD
$EndMODULE SOIC127P600X175-14N
$EndLIBRARY
