PCBNEW-LibModule-V1  2017-12-12 18:35:39
# encoding utf-8
Units mm
$INDEX
FC-135_1
$EndINDEX
$MODULE FC-135_1
Po 0 0 0 15 5a30217b 00000000 ~~
Li FC-135_1
Cd FC-135_1
Kw Crystal or Oscillator
Sc 0
At SMD
AR 
Op 0 0 0
T0 -0.44328 -1.53366 1.27 1.27 0 0.254 N V 21 N "Y**"
T1 -0.44328 -1.53366 1.27 1.27 0 0.254 N I 21 N "FC-135_1"
DS -1.6 -0.75 1.6 -0.75 0.2 24
DS 1.6 -0.75 1.6 0.75 0.2 24
DS 1.6 0.75 -1.6 0.75 0.2 24
DS -1.6 0.75 -1.6 -0.75 0.2 24
DC -2.125 0.157 -2.267 0.157 0.254 21
$PAD
Po -1.25 0
Sh "1" R 1 1.8 0 0 0
At SMD N 00888000
Ne 0 ""
$EndPAD
$PAD
Po 1.25 0
Sh "2" R 1 1.8 0 0 0
At SMD N 00888000
Ne 0 ""
$EndPAD
$EndMODULE FC-135_1
$EndLIBRARY
