PCBNEW-LibModule-V1  2018-11-27 20:38:23
# encoding utf-8
Units mm
$INDEX
G2R-1A4
$EndINDEX
$MODULE G2R-1A4
Po 0 0 0 15 5bfdab3f 00000000 ~~
Li G2R-1A4
Cd G2R-1A4
Kw Relay or Contactor
Sc 0
At STD
AR 
Op 0 0 0
T0 -2.124 -0.274 1.27 1.27 0 0.254 N V 21 N "K**"
T1 -2.124 -0.274 1.27 1.27 0 0.254 N I 21 N "G2R-1A4"
DS -14.5 -6.5 14.5 -6.5 0.2 24
DS 14.5 -6.5 14.5 6.5 0.2 24
DS 14.5 6.5 -14.5 6.5 0.2 24
DS -14.5 6.5 -14.5 -6.5 0.2 24
DS -14.5 6.5 -14.5 -6.5 0.2 21
DS -14.5 -6.5 14.5 -6.5 0.2 21
DS 14.5 -6.5 14.5 6.5 0.2 21
DS 14.5 6.5 -14.5 6.5 0.2 21
DC -11.814 7.387 -11.943 7.387 0.254 21
$PAD
Po -11.75 3.75
Sh "1" C 2 2 0 0 900
Dr 1.3 0 0
At STD N 00E0FFFF
Ne 0 ""
$EndPAD
$PAD
Po -11.75 -3.75
Sh "5" C 2 2 0 0 900
Dr 1.3 0 0
At STD N 00E0FFFF
Ne 0 ""
$EndPAD
$PAD
Po 8.25 -3.75
Sh "4" C 2 2 0 0 900
Dr 1.3 0 0
At STD N 00E0FFFF
Ne 0 ""
$EndPAD
$PAD
Po 11.75 3.75
Sh "3" C 2 2 0 0 900
Dr 1.3 0 0
At STD N 00E0FFFF
Ne 0 ""
$EndPAD
$EndMODULE G2R-1A4
$EndLIBRARY
