PCBNEW-LibModule-V1  2018-08-14 14:17:30
# encoding utf-8
Units mm
$INDEX
SOP254P1000X380-4N
$EndINDEX
$MODULE SOP254P1000X380-4N
Po 0 0 0 15 5b72d66a 00000000 ~~
Li SOP254P1000X380-4N
Cd G3VM-41DY1
Kw Relay or Contactor
Sc 0
At SMD
AR 
Op 0 0 0
T0 0 0 1.27 1.27 0 0.254 N V 21 N "K**"
T1 0 0 1.27 1.27 0 0.254 N I 21 N "SOP254P1000X380-4N"
DS -5.7 -3.575 5.7 -3.575 0.05 24
DS 5.7 -3.575 5.7 3.575 0.05 24
DS 5.7 3.575 -5.7 3.575 0.05 24
DS -5.7 3.575 -5.7 -3.575 0.05 24
DS -2.29 -3.2 2.29 -3.2 0.1 24
DS 2.29 -3.2 2.29 3.2 0.1 24
DS 2.29 3.2 -2.29 3.2 0.1 24
DS -2.29 3.2 -2.29 -3.2 0.1 24
DS -2.29 -0.66 0.25 -3.2 0.1 24
DS -3.2 -3.2 3.2 -3.2 0.2 21
DS 3.2 -3.2 3.2 3.2 0.2 21
DS 3.2 3.2 -3.2 3.2 0.2 21
DS -3.2 3.2 -3.2 -3.2 0.2 21
DS -5.45 -2.37 -3.55 -2.37 0.2 21
$PAD
Po -4.5 -1.27
Sh "1" R 1.5 1.9 0 0 900
At SMD N 00888000
Ne 0 ""
$EndPAD
$PAD
Po -4.5 1.27
Sh "2" R 1.5 1.9 0 0 900
At SMD N 00888000
Ne 0 ""
$EndPAD
$PAD
Po 4.5 1.27
Sh "3" R 1.5 1.9 0 0 900
At SMD N 00888000
Ne 0 ""
$EndPAD
$PAD
Po 4.5 -1.27
Sh "4" R 1.5 1.9 0 0 900
At SMD N 00888000
Ne 0 ""
$EndPAD
$EndMODULE SOP254P1000X380-4N
$EndLIBRARY
