PCBNEW-LibModule-V1  2018-10-28 15:15:25
# encoding utf-8
Units mm
$INDEX
LMZM23600SILT
$EndINDEX
$MODULE LMZM23600SILT
Po 0 0 0 15 5bd5d28d 00000000 ~~
Li LMZM23600SILT
Cd SIL0010A_1
Kw Integrated Circuit
Sc 0
At SMD
AR 
Op 0 0 0
T0 -0.350 -0 1.27 1.27 0 0.254 N V 21 N "IC**"
T1 -0.350 -0 1.27 1.27 0 0.254 N I 21 N "LMZM23600SILT"
DS -1.9 -1.5 1.9 -1.5 0.2 24
DS 1.9 -1.5 1.9 1.5 0.2 24
DS 1.9 1.5 -1.9 1.5 0.2 24
DS -1.9 1.5 -1.9 -1.5 0.2 24
DS -3.1 -2 2.4 -2 0.1 24
DS 2.4 -2 2.4 2 0.1 24
DS 2.4 2 -3.1 2 0.1 24
DS -3.1 2 -3.1 -2 0.1 24
DS -2.5 -1.3 -2.5 -1.3 0.2 21
DS -2.5 -1.1 -2.5 -1.1 0.2 21
DA -2.5 -1.2 -2.500 -1.3 1800 0.2 21
DA -2.5 -1.2 -2.500 -1.1 1800 0.2 21
$PAD
Po -1.525 -1.2
Sh "1" R 0.400 0.700 0 0 900
At SMD N 00888000
Ne 0 ""
$EndPAD
$PAD
Po -1.525 -0.6
Sh "2" R 0.400 0.700 0 0 900
At SMD N 00888000
Ne 0 ""
$EndPAD
$PAD
Po -1.525 -0
Sh "3" R 0.400 0.700 0 0 900
At SMD N 00888000
Ne 0 ""
$EndPAD
$PAD
Po -1.525 0.6
Sh "4" R 0.400 0.700 0 0 900
At SMD N 00888000
Ne 0 ""
$EndPAD
$PAD
Po -1.525 1.2
Sh "5" R 0.400 0.700 0 0 900
At SMD N 00888000
Ne 0 ""
$EndPAD
$PAD
Po 1.525 1.2
Sh "6" R 0.400 0.700 0 0 900
At SMD N 00888000
Ne 0 ""
$EndPAD
$PAD
Po 1.525 0.6
Sh "7" R 0.400 0.700 0 0 900
At SMD N 00888000
Ne 0 ""
$EndPAD
$PAD
Po 1.525 -0
Sh "8" R 0.400 0.700 0 0 900
At SMD N 00888000
Ne 0 ""
$EndPAD
$PAD
Po 1.525 -0.6
Sh "9" R 0.400 0.700 0 0 900
At SMD N 00888000
Ne 0 ""
$EndPAD
$PAD
Po 1.525 -1.2
Sh "10" R 0.400 0.700 0 0 900
At SMD N 00888000
Ne 0 ""
$EndPAD
$PAD
Po 0.000 -0
Sh "11" R 0.800 3.000 0 0 0
At SMD N 00888000
Ne 0 ""
$EndPAD
$EndMODULE LMZM23600SILT
$EndLIBRARY
