PCBNEW-LibModule-V1  2018-10-28 15:19:48
# encoding utf-8
Units mm
$INDEX
LMZM23601V5SILR
$EndINDEX
$MODULE LMZM23601V5SILR
Po 0 0 0 15 5bd5d394 00000000 ~~
Li LMZM23601V5SILR
Cd SIL0010A
Kw Integrated Circuit
Sc 0
At SMD
AR 
Op 0 0 0
T0 0.000 -0 1.27 1.27 0 0.254 N V 21 N "IC**"
T1 0.000 -0 1.27 1.27 0 0.254 N I 21 N "LMZM23601V5SILR"
DS -1.45 -1.5 2.35 -1.5 0.2 24
DS 2.35 -1.5 2.35 1.5 0.2 24
DS 2.35 1.5 -1.45 1.5 0.2 24
DS -1.45 1.5 -1.45 -1.5 0.2 24
DS -3.35 -2.5 3.35 -2.5 0.1 24
DS 3.35 -2.5 3.35 2.5 0.1 24
DS 3.35 2.5 -3.35 2.5 0.1 24
DS -3.35 2.5 -3.35 -2.5 0.1 24
DS -0.55 -1.5 -0.05 -1.5 0.1 21
DS -0.55 1.5 -0.05 1.5 0.1 21
DS 0.95 -1.5 1.45 -1.5 0.1 21
DS 0.95 1.5 1.45 1.5 0.1 21
DS -2.25 -1.2 -2.25 -1.2 0.2 21
DS -2.25 -1.4 -2.25 -1.4 0.2 21
DA -2.25 -1.3 -2.250 -1.2 1800 0.2 21
DA -2.25 -1.3 -2.250 -1.4 1800 0.2 21
$PAD
Po -1.075 -1.2
Sh "1" R 0.300 0.650 0 0 900
At SMD N 00888000
Ne 0 ""
$EndPAD
$PAD
Po -1.075 -0.6
Sh "2" R 0.300 0.650 0 0 900
At SMD N 00888000
Ne 0 ""
$EndPAD
$PAD
Po -1.075 -0
Sh "3" R 0.300 0.650 0 0 900
At SMD N 00888000
Ne 0 ""
$EndPAD
$PAD
Po -1.075 0.6
Sh "4" R 0.300 0.650 0 0 900
At SMD N 00888000
Ne 0 ""
$EndPAD
$PAD
Po -1.075 1.2
Sh "5" R 0.300 0.650 0 0 900
At SMD N 00888000
Ne 0 ""
$EndPAD
$PAD
Po 1.975 1.2
Sh "6" R 0.300 0.650 0 0 900
At SMD N 00888000
Ne 0 ""
$EndPAD
$PAD
Po 1.975 0.6
Sh "7" R 0.300 0.650 0 0 900
At SMD N 00888000
Ne 0 ""
$EndPAD
$PAD
Po 1.975 -0
Sh "8" R 0.300 0.650 0 0 900
At SMD N 00888000
Ne 0 ""
$EndPAD
$PAD
Po 1.975 -0.6
Sh "9" R 0.300 0.650 0 0 900
At SMD N 00888000
Ne 0 ""
$EndPAD
$PAD
Po 1.975 -1.2
Sh "10" R 0.300 0.650 0 0 900
At SMD N 00888000
Ne 0 ""
$EndPAD
$PAD
Po 0.450 -0
Sh "11" R 0.700 2.900 0 0 0
At SMD N 00888000
Ne 0 ""
$EndPAD
$EndMODULE LMZM23601V5SILR
$EndLIBRARY
