PCBNEW-LibModule-V1  2018-10-07 01:36:40
# encoding utf-8
Units mm
$INDEX
SHDR2W100P0X381_1X2_901X920X725P
$EndINDEX
$MODULE SHDR2W100P0X381_1X2_901X920X725P
Po 0 0 0 15 5bb95518 00000000 ~~
Li SHDR2W100P0X381_1X2_901X920X725P
Cd 1844210_1
Kw Connector
Sc 0
At STD
AR 
Op 0 0 0
T0 0 0 1.27 1.27 0 0.254 N V 21 N "J**"
T1 0 0 1.27 1.27 0 0.254 N I 21 N "SHDR2W100P0X381_1X2_901X920X725P"
DS -2.85 8.25 -2.85 -1.45 0.05 24
DS -2.85 -1.45 6.66 -1.45 0.05 24
DS 6.66 -1.45 6.66 8.25 0.05 24
DS 6.66 8.25 -2.85 8.25 0.05 24
DS -2.6 8 -2.6 -1.2 0.1 24
DS -2.6 -1.2 6.41 -1.2 0.1 24
DS 6.41 -1.2 6.41 8 0.1 24
DS 6.41 8 -2.6 8 0.1 24
DS 0 8 6.41 8 0.2 21
DS 6.41 8 6.41 -1.2 0.2 21
DS 6.41 -1.2 -2.6 -1.2 0.2 21
DS -2.6 -1.2 -2.6 0 0.2 21
$PAD
Po 0 0
Sh "1" R 1.8 1.8 0 0 900
Dr 1.2 0 0
At STD N 00E0FFFF
Ne 0 ""
$EndPAD
$PAD
Po 3.81 0
Sh "2" C 1.8 1.8 0 0 900
Dr 1.2 0 0
At STD N 00E0FFFF
Ne 0 ""
$EndPAD
$EndMODULE SHDR2W100P0X381_1X2_901X920X725P
$EndLIBRARY
