PCBNEW-LibModule-V1  2018-11-20 18:54:22
# encoding utf-8
Units mm
$INDEX
MEF1S2405SPC
$EndINDEX
$MODULE MEF1S2405SPC
Po 0 0 0 15 5bf4585e 00000000 ~~
Li MEF1S2405SPC
Cd MEF1 (SPC)_FFW
Kw Power Supply
Sc 0
At STD
AR 
Op 0 0 0
T0 9.825 2.794 1.27 1.27 0 0.254 N V 21 N "PS**"
T1 9.825 2.794 1.27 1.27 0 0.254 N I 21 N "MEF1S2405SPC"
DS 0 -0 19.65 -0 0.2 24
DS 19.65 -0 19.65 6.15 0.2 24
DS 19.65 6.15 0 6.15 0.2 24
DS 0 6.15 0 -0 0.2 24
DS 0 -0 19.65 -0 0.1 21
DS 19.65 -0 19.65 6.15 0.1 21
DS 19.65 6.15 0 6.15 0.1 21
DS 0 6.15 0 -0 0.1 21
DS -1 -1.563 20.65 -1.563 0.1 24
DS 20.65 -1.563 20.65 7.15 0.1 24
DS 20.65 7.15 -1 7.15 0.1 24
DS -1 7.15 -1 -1.563 0.1 24
DS 2.03 -0.513 2.03 -0.513 0.1 21
DS 2.13 -0.513 2.13 -0.513 0.1 21
DA 2.08 -0.513 2.030 -0.513 1800 0.1 21
DA 2.08 -0.513 2.130 -0.513 1800 0.1 21
$PAD
Po 2.030 1.225
Sh "1" C 1.260 1.260 0 0 900
Dr 0.76 0 0
At STD N 00E0FFFF
Ne 0 ""
$EndPAD
$PAD
Po 4.570 1.225
Sh "2" C 1.260 1.260 0 0 900
Dr 0.76 0 0
At STD N 00E0FFFF
Ne 0 ""
$EndPAD
$PAD
Po 9.650 1.225
Sh "4" C 1.260 1.260 0 0 900
Dr 0.76 0 0
At STD N 00E0FFFF
Ne 0 ""
$EndPAD
$PAD
Po 14.730 1.225
Sh "6" C 1.260 1.260 0 0 900
Dr 0.76 0 0
At STD N 00E0FFFF
Ne 0 ""
$EndPAD
$EndMODULE MEF1S2405SPC
$EndLIBRARY
