PCBNEW-LibModule-V1  2018-10-27 22:35:26
# encoding utf-8
Units mm
$INDEX
DIOM5436X247N
$EndINDEX
$MODULE DIOM5436X247N
Po 0 0 0 15 5bd4da1e 00000000 ~~
Li DIOM5436X247N
Cd SMB CASE 403A-03 ISSUE J
Kw Diode
Sc 0
At SMD
AR 
Op 0 0 0
T0 0 0 1.27 1.27 0 0.254 N V 21 N "D**"
T1 0 0 1.27 1.27 0 0.254 N I 21 N "DIOM5436X247N"
DS -3.575 -2.225 3.575 -2.225 0.05 24
DS 3.575 -2.225 3.575 2.225 0.05 24
DS 3.575 2.225 -3.575 2.225 0.05 24
DS -3.575 2.225 -3.575 -2.225 0.05 24
DS -2.702 -1.812 2.702 -1.812 0.1 24
DS 2.702 -1.812 2.702 1.812 0.1 24
DS 2.702 1.812 -2.702 1.812 0.1 24
DS -2.702 1.812 -2.702 -1.812 0.1 24
DS -2.702 -0.738 -1.628 -1.812 0.1 24
DS 2.702 -1.812 -3.275 -1.812 0.2 21
DS -2.702 1.812 2.702 1.812 0.2 21
$PAD
Po -2.2 0
Sh "1" R 2.15 2.25 0 0 900
At SMD N 00888000
Ne 0 ""
$EndPAD
$PAD
Po 2.2 0
Sh "2" R 2.15 2.25 0 0 900
At SMD N 00888000
Ne 0 ""
$EndPAD
$EndMODULE DIOM5436X247N
$EndLIBRARY
