PCBNEW-LibModule-V1  2018-08-09 15:38:31
# encoding utf-8
Units mm
$INDEX
PE1812ACC110STS
$EndINDEX
$MODULE PE1812ACC110STS
Po 0 0 0 15 5b6c51e7 00000000 ~~
Li PE1812ACC110STS
Cd PE-1812ACC110STS
Kw Inductor
Sc 0
At SMD
AR 
Op 0 0 0
T0 -0.000 -0 1.27 1.27 0 0.254 N V 21 N "L**"
T1 -0.000 -0 1.27 1.27 0 0.254 N I 21 N "PE1812ACC110STS"
DS -2.25 -1.6 2.25 -1.6 0.2 24
DS 2.25 -1.6 2.25 1.6 0.2 24
DS 2.25 1.6 -2.25 1.6 0.2 24
DS -2.25 1.6 -2.25 -1.6 0.2 24
DS -3.95 -2.72 3.95 -2.72 0.1 24
DS 3.95 -2.72 3.95 2.72 0.1 24
DS 3.95 2.72 -3.95 2.72 0.1 24
DS -3.95 2.72 -3.95 -2.72 0.1 24
DS -2.25 -0.5 -2.25 0.5 0.1 21
DS 2.25 -0.5 2.25 0.5 0.1 21
DS -1 1.6 1 1.6 0.1 21
DS -1 -1.6 1 -1.6 0.1 21
$PAD
Po -2.275 -1.27
Sh "1" R 0.900 1.350 0 0 900
At SMD N 00888000
Ne 0 ""
$EndPAD
$PAD
Po -2.275 1.27
Sh "2" R 0.900 1.350 0 0 900
At SMD N 00888000
Ne 0 ""
$EndPAD
$PAD
Po 2.275 1.27
Sh "3" R 0.900 1.350 0 0 900
At SMD N 00888000
Ne 0 ""
$EndPAD
$PAD
Po 2.275 -1.27
Sh "4" R 0.900 1.350 0 0 900
At SMD N 00888000
Ne 0 ""
$EndPAD
$EndMODULE PE1812ACC110STS
$EndLIBRARY
