PCBNEW-LibModule-V1  2018-11-22 21:03:24
# encoding utf-8
Units mm
$INDEX
SHDRV3W100P0_254_1X3_1160X850X1040P
$EndINDEX
$MODULE SHDRV3W100P0_254_1X3_1160X850X1040P
Po 0 0 0 15 5bf7199c 00000000 ~~
Li SHDRV3W100P0_254_1X3_1160X850X1040P
Cd R-78E3.3-0.5
Kw Undefined or Miscellaneous
Sc 0
At STD
AR 
Op 0 0 0
T0 2.59 3 1.27 1.27 0 0.254 N V 21 N "U**"
T1 2.59 3 1.27 1.27 0 0.254 N I 21 N "SHDRV3W100P0_254_1X3_1160X850X1040P"
DS -3.21 2 8.39 2 0.001 24
DS 8.39 2 8.39 -6.5 0.001 24
DS 8.39 -6.5 -3.21 -6.5 0.001 24
DS -3.21 -6.5 -3.21 2 0.001 24
DS -3.21 2 8.39 2 0.1 24
DS 8.39 2 8.39 -6.5 0.1 24
DS 8.39 -6.5 -3.21 -6.5 0.1 24
DS -3.21 -6.5 -3.21 2 0.1 24
DS -0.75 0.75 -0.75 -0.75 0.1 24
DS -0.75 -0.75 0.75 -0.75 0.1 24
DS 0.75 -0.75 0.75 0.75 0.1 24
DS 0.75 0.75 -0.75 0.75 0.1 24
DS -2.81 1.6 7.99 1.6 0.1 24
DS 7.99 1.6 7.99 -6.1 0.1 24
DS 7.99 -6.1 -2.81 -6.1 0.1 24
DS -2.81 -6.1 -2.81 1.6 0.1 24
DS -0.75 -6.1 0 -4.6 0.1 24
DS 0.75 -6.1 0 -4.6 0.1 24
DS -3.21 -6.5 8.39 -6.5 0.2 21
DS -3.21 2 8.39 2 0.2 21
DS -3.21 2 -3.21 -6.5 0.2 21
DS 8.39 2 8.39 -6.5 0.2 21
DS -3.46 2.25 8.64 2.25 0.05 24
DS 8.64 2.25 8.64 -6.75 0.05 24
DS 8.64 -6.75 -3.46 -6.75 0.05 24
DS -3.46 -6.75 -3.46 2.25 0.05 24
DS 0 0.5 0 -0.5 0.05 24
DS -0.5 0 0.5 0 0.05 24
DC 2.54 0 1.79 0 0.254 24
DC 5.08 0 4.33 0 0.254 24
DC 0 -7.075 -0.125 -7.075 0.254 21
$PAD
Po 0 0
Sh "1" R 1.5 1.5 0 0 900
Dr 1 0 0
At STD N 00E0FFFF
Ne 0 ""
$EndPAD
$PAD
Po 2.54 0
Sh "2" C 1.5 1.5 0 0 900
Dr 1 0 0
At STD N 00E0FFFF
Ne 0 ""
$EndPAD
$PAD
Po 5.08 0
Sh "3" C 1.5 1.5 0 0 900
Dr 1 0 0
At STD N 00E0FFFF
Ne 0 ""
$EndPAD
$EndMODULE SHDRV3W100P0_254_1X3_1160X850X1040P
$EndLIBRARY
