PCBNEW-LibModule-V1  2018-08-14 15:42:21
# encoding utf-8
Units mm
$INDEX
RESC1608X55N
$EndINDEX
$MODULE RESC1608X55N
Po 0 0 0 15 5b72ea4d 00000000 ~~
Li RESC1608X55N
Cd RC0603
Kw Resistor
Sc 0
At SMD
AR 
Op 0 0 0
T0 0 0 1.27 1.27 0 0.254 N V 21 N "R**"
T1 0 0 1.27 1.27 0 0.254 N I 21 N "RESC1608X55N"
DS -0.85 0.475 0.85 0.475 0.001 24
DS 0.85 0.475 0.85 -0.475 0.001 24
DS 0.85 -0.475 -0.85 -0.475 0.001 24
DS -0.85 -0.475 -0.85 0.475 0.001 24
DS -1.45 0.75 1.45 0.75 0.05 24
DS 1.45 0.75 1.45 -0.75 0.05 24
DS 1.45 -0.75 -1.45 -0.75 0.05 24
DS -1.45 -0.75 -1.45 0.75 0.05 24
DS 0 0.5 0 -0.5 0.05 24
DS -0.5 0 0.5 0 0.05 24
DS -0.8 0.4 0.8 0.4 0.1 24
DS 0.8 0.4 0.8 -0.4 0.1 24
DS 0.8 -0.4 -0.8 -0.4 0.1 24
DS -0.8 -0.4 -0.8 0.4 0.1 24
$PAD
Po -0.65 0
Sh "1" R 1 1.1 0 0 900
At SMD N 00888000
Ne 0 ""
$EndPAD
$PAD
Po 0.65 0
Sh "2" R 1 1.1 0 0 900
At SMD N 00888000
Ne 0 ""
$EndPAD
$EndMODULE RESC1608X55N
$EndLIBRARY
