PCBNEW-LibModule-V1  2018-10-04 22:22:13
# encoding utf-8
Units mm
$INDEX
615008137421
$EndINDEX
$MODULE 615008137421
Po 0 0 0 15 5bb68485 00000000 ~~
Li 615008137421
Cd 615008137421
Kw Connector
Sc 0
At STD
AR 
Op 0 0 0
T0 -0.258 -5.627 1.27 1.27 0 0.254 N V 21 N "J**"
T1 -0.258 -5.627 1.27 1.27 0 0.254 N I 21 N "615008137421"
DS -8.15 -15.75 8.15 -15.75 0.254 24
DS 8.15 -15.75 8.15 0 0.254 24
DS 8.15 0 -8.15 0 0.254 24
DS -8.15 0 -8.15 -15.75 0.254 24
DS -8.15 -15.75 8.15 -15.75 0.254 21
DS 8.15 0 -8.15 0 0.254 21
DS -8.15 0 -8.15 -7.2 0.254 21
DS -8.15 -15.75 -8.15 -10.5 0.254 21
DS 8.15 0 8.15 -7.2 0.254 21
DS 8.15 -15.75 8.15 -10.5 0.254 21
DC 3.372 0.935 3.21637 0.935 0.254 21
$PAD
Po 3.57 -8
Sh "1" C 1.3 1.3 0 0 900
Dr 0.8 0 0
At STD N 00E0FFFF
Ne 0 ""
$EndPAD
$PAD
Po 2.55 -9.78
Sh "2" C 1.3 1.3 0 0 900
Dr 0.8 0 0
At STD N 00E0FFFF
Ne 0 ""
$EndPAD
$PAD
Po 1.53 -8
Sh "3" C 1.3 1.3 0 0 900
Dr 0.8 0 0
At STD N 00E0FFFF
Ne 0 ""
$EndPAD
$PAD
Po 0.51 -9.78
Sh "4" C 1.3 1.3 0 0 900
Dr 0.8 0 0
At STD N 00E0FFFF
Ne 0 ""
$EndPAD
$PAD
Po -0.51 -8
Sh "5" C 1.3 1.3 0 0 900
Dr 0.8 0 0
At STD N 00E0FFFF
Ne 0 ""
$EndPAD
$PAD
Po -1.53 -9.78
Sh "6" C 1.3 1.3 0 0 900
Dr 0.8 0 0
At STD N 00E0FFFF
Ne 0 ""
$EndPAD
$PAD
Po -2.55 -8
Sh "7" C 1.3 1.3 0 0 900
Dr 0.8 0 0
At STD N 00E0FFFF
Ne 0 ""
$EndPAD
$PAD
Po -3.57 -9.78
Sh "8" C 1.3 1.3 0 0 900
Dr 0.8 0 0
At STD N 00E0FFFF
Ne 0 ""
$EndPAD
$PAD
Po -6.86 -14.6
Sh "9" C 1.3 1.3 0 0 900
Dr 0.8 0 0
At STD N 00E0FFFF
Ne 0 ""
$EndPAD
$PAD
Po -4.57 -14.6
Sh "10" C 1.3 1.3 0 0 900
Dr 0.8 0 0
At STD N 00E0FFFF
Ne 0 ""
$EndPAD
$PAD
Po 4.57 -14.6
Sh "11" C 1.3 1.3 0 0 900
Dr 0.8 0 0
At STD N 00E0FFFF
Ne 0 ""
$EndPAD
$PAD
Po 6.86 -14.6
Sh "12" C 1.3 1.3 0 0 900
Dr 0.8 0 0
At STD N 00E0FFFF
Ne 0 ""
$EndPAD
$PAD
Po -6.35 -5.46
Sh "13" C 3.25 3.25 0 0 900
Dr 3.25 0 0
At STD N 00E0FFFF
Ne 0 ""
$EndPAD
$PAD
Po 6.35 -5.46
Sh "14" C 3.25 3.25 0 0 900
Dr 3.25 0 0
At STD N 00E0FFFF
Ne 0 ""
$EndPAD
$PAD
Po -8.125 -8.89
Sh "15" C 2.6 2.6 0 0 900
Dr 1.7 0 0
At STD N 00E0FFFF
Ne 0 ""
$EndPAD
$PAD
Po 8.125 -8.89
Sh "16" C 2.6 2.6 0 0 900
Dr 1.7 0 0
At STD N 00E0FFFF
Ne 0 ""
$EndPAD
$EndMODULE 615008137421
$EndLIBRARY
