PCBNEW-LibModule-V1  2018-10-27 23:07:41
# encoding utf-8
Units mm
$INDEX
HDRV2W60P0X505_1X2_800X300X830P
$EndINDEX
$MODULE HDRV2W60P0X505_1X2_800X300X830P
Po 0 0 0 15 5bd4e1ad 00000000 ~~
Li HDRV2W60P0X505_1X2_800X300X830P
Cd V60
Kw Fuse
Sc 0
At STD
AR 
Op 0 0 0
T0 0 0 1.27 1.27 0 0.254 N V 21 N "F**"
T1 0 0 1.27 1.27 0 0.254 N I 21 N "HDRV2W60P0X505_1X2_800X300X830P"
DS -1.725 1.75 -1.725 -1.75 0.05 24
DS -1.725 -1.75 6.775 -1.75 0.05 24
DS 6.775 -1.75 6.775 1.75 0.05 24
DS 6.775 1.75 -1.725 1.75 0.05 24
DS -1.475 1.5 -1.475 -1.5 0.1 24
DS -1.475 -1.5 6.525 -1.5 0.1 24
DS 6.525 -1.5 6.525 1.5 0.1 24
DS 6.525 1.5 -1.475 1.5 0.1 24
DS -1.475 0 -1.475 1.5 0.2 21
DS -1.475 1.5 6.525 1.5 0.2 21
DS 6.525 1.5 6.525 -1.5 0.2 21
DS 6.525 -1.5 0 -1.5 0.2 21
$PAD
Po 0 0
Sh "1" R 1.2 1.2 0 0 900
Dr 0.8 0 0
At STD N 00E0FFFF
Ne 0 ""
$EndPAD
$PAD
Po 5.05 0
Sh "2" C 1.2 1.2 0 0 900
Dr 0.8 0 0
At STD N 00E0FFFF
Ne 0 ""
$EndPAD
$EndMODULE HDRV2W60P0X505_1X2_800X300X830P
$EndLIBRARY
