PCBNEW-LibModule-V1  2018-08-08 17:55:45
# encoding utf-8
Units mm
$INDEX
SMLD15YWT86
$EndINDEX
$MODULE SMLD15YWT86
Po 0 0 0 15 5b6b2091 00000000 ~~
Li SMLD15YWT86
Cd 1608 (0603)
Kw LED
Sc 0
At SMD
AR 
Op 0 0 0
T0 0.000 -0.238 1.27 1.27 0 0.254 N V 21 N "LED**"
T1 0.000 -0.238 1.27 1.27 0 0.254 N I 21 N "SMLD15YWT86"
DS -0.4 -0.8 0.4 -0.8 0.2 24
DS 0.4 -0.8 0.4 0.8 0.2 24
DS 0.4 0.8 -0.4 0.8 0.2 24
DS -0.4 0.8 -0.4 -0.8 0.2 24
DS -0.9 -2.2 0.9 -2.2 0.1 24
DS 0.9 -2.2 0.9 1.725 0.1 24
DS 0.9 1.725 -0.9 1.725 0.1 24
DS -0.9 1.725 -0.9 -2.2 0.1 24
DS -0.1 -1.6 -0.1 -1.6 0.2 21
DS 0.1 -1.6 0.1 -1.6 0.2 21
DS -0.4 -0.3 -0.4 0.3 0.1 21
DS 0.4 -0.3 0.4 0.3 0.1 21
DA -2.7755575615629E-17 -1.6 -0.100 -1.6 1800 0.2 21
DA -2.7755575615629E-17 -1.6 0.100 -1.6 1800 0.2 21
$PAD
Po 0.000 -0.825
Sh "1" R 0.800 0.800 0 0 900
At SMD N 00888000
Ne 0 ""
$EndPAD
$PAD
Po 0.000 0.825
Sh "2" R 0.800 0.800 0 0 900
At SMD N 00888000
Ne 0 ""
$EndPAD
$EndMODULE SMLD15YWT86
$EndLIBRARY
