PCBNEW-LibModule-V1  2018-10-29 17:38:54
# encoding utf-8
Units mm
$INDEX
SRP6540
$EndINDEX
$MODULE SRP6540
Po 0 0 0 15 5bd745ae 00000000 ~~
Li SRP6540
Cd SRP6540
Kw Inductor
Sc 0
At SMD
AR 
Op 0 0 0
T0 -0.305 -0.084 1.27 1.27 0 0.254 N V 21 N "L**"
T1 -0.305 -0.084 1.27 1.27 0 0.254 N I 21 N "SRP6540"
DS -3.25 -3.25 3.25 -3.25 0.254 24
DS 3.25 -3.25 3.25 3.25 0.254 24
DS 3.25 3.25 -3.25 3.25 0.254 24
DS -3.25 3.25 -3.25 -3.25 0.254 24
DS -3.25 -3.25 3.25 -3.25 0.254 21
DS 3.25 3.25 -3.25 3.25 0.254 21
DC -4.154 -0.099 -4.2295 -0.099 0.254 21
$PAD
Po -2.775 0
Sh "1" R 1.85 3.4 0 0 0
At SMD N 00888000
Ne 0 ""
$EndPAD
$PAD
Po 2.775 0
Sh "2" R 1.85 3.4 0 0 0
At SMD N 00888000
Ne 0 ""
$EndPAD
$EndMODULE SRP6540
$EndLIBRARY
