PCBNEW-LibModule-V1  2018-12-12 20:53:27
# encoding utf-8
Units mm
$INDEX
SOIC127P1410X370-11N
$EndINDEX
$MODULE SOIC127P1410X370-11N
Po 0 0 0 15 5c117547 00000000 ~~
Li SOIC127P1410X370-11N
Cd PowerSO-10_1
Kw Integrated Circuit
Sc 0
At SMD
AR 
Op 0 0 0
T0 0 0 1.27 1.27 0 0.254 N V 21 N "IC**"
T1 0 0 1.27 1.27 0 0.254 N I 21 N "SOIC127P1410X370-11N"
DS -7.8 -4.925 7.8 -4.925 0.05 24
DS 7.8 -4.925 7.8 4.925 0.05 24
DS 7.8 4.925 -7.8 4.925 0.05 24
DS -7.8 4.925 -7.8 -4.925 0.05 24
DS -4.7 -3.75 4.7 -3.75 0.1 24
DS 4.7 -3.75 4.7 3.75 0.1 24
DS 4.7 3.75 -4.7 3.75 0.1 24
DS -4.7 3.75 -4.7 -3.75 0.1 24
DS -4.7 -2.48 -3.43 -3.75 0.1 24
DS -7.55 -3.24 -5.1 -3.24 0.2 21
$PAD
Po -6.325 -2.54
Sh "1" R 0.7 2.45 0 0 900
At SMD N 00888000
Ne 0 ""
$EndPAD
$PAD
Po -6.325 -1.27
Sh "2" R 0.7 2.45 0 0 900
At SMD N 00888000
Ne 0 ""
$EndPAD
$PAD
Po -6.325 0
Sh "3" R 0.7 2.45 0 0 900
At SMD N 00888000
Ne 0 ""
$EndPAD
$PAD
Po -6.325 1.27
Sh "4" R 0.7 2.45 0 0 900
At SMD N 00888000
Ne 0 ""
$EndPAD
$PAD
Po -6.325 2.54
Sh "5" R 0.7 2.45 0 0 900
At SMD N 00888000
Ne 0 ""
$EndPAD
$PAD
Po 6.325 2.54
Sh "6" R 0.7 2.45 0 0 900
At SMD N 00888000
Ne 0 ""
$EndPAD
$PAD
Po 6.325 1.27
Sh "7" R 0.7 2.45 0 0 900
At SMD N 00888000
Ne 0 ""
$EndPAD
$PAD
Po 6.325 0
Sh "8" R 0.7 2.45 0 0 900
At SMD N 00888000
Ne 0 ""
$EndPAD
$PAD
Po 6.325 -1.27
Sh "9" R 0.7 2.45 0 0 900
At SMD N 00888000
Ne 0 ""
$EndPAD
$PAD
Po 6.325 -2.54
Sh "10" R 0.7 2.45 0 0 900
At SMD N 00888000
Ne 0 ""
$EndPAD
$PAD
Po 0 0
Sh "11" R 7.6 9.6 0 0 0
At SMD N 00888000
Ne 0 ""
$EndPAD
$EndMODULE SOIC127P1410X370-11N
$EndLIBRARY
