PCBNEW-LibModule-V1  2017-12-27 12:12:12
# encoding utf-8
Units mm
$INDEX
SOT96P237X111-3N
$EndINDEX
$MODULE SOT96P237X111-3N
Po 0 0 0 15 5a438e1c 00000000 ~~
Li SOT96P237X111-3N
Cd SOT-23 (TO-236) CASE 318-08
Kw Diode
Sc 0
At SMD
AR 
Op 0 0 0
T0 0 0 1.27 1.27 0 0.254 N V 21 N "D**"
T1 0 0 1.27 1.27 0 0.254 N I 21 N "SOT96P237X111-3N"
DS -1.95 -1.77 1.95 -1.77 0.05 24
DS 1.95 -1.77 1.95 1.77 0.05 24
DS 1.95 1.77 -1.95 1.77 0.05 24
DS -1.95 1.77 -1.95 -1.77 0.05 24
DS -0.65 -1.46 0.65 -1.46 0.1 24
DS 0.65 -1.46 0.65 1.46 0.1 24
DS 0.65 1.46 -0.65 1.46 0.1 24
DS -0.65 1.46 -0.65 -1.46 0.1 24
DS -0.65 -0.505 0.305 -1.46 0.1 24
DS -0.35 -1.46 0.35 -1.46 0.2 21
DS 0.35 -1.46 0.35 1.46 0.2 21
DS 0.35 1.46 -0.35 1.46 0.2 21
DS -0.35 1.46 -0.35 -1.46 0.2 21
DS -1.7 -1.505 -0.7 -1.505 0.2 21
$PAD
Po -1.2 -0.955
Sh "1" R 0.6 1 0 0 900
At SMD N 00888000
Ne 0 ""
$EndPAD
$PAD
Po -1.2 0.955
Sh "2" R 0.6 1 0 0 900
At SMD N 00888000
Ne 0 ""
$EndPAD
$PAD
Po 1.2 0
Sh "3" R 0.6 1 0 0 900
At SMD N 00888000
Ne 0 ""
$EndPAD
$EndMODULE SOT96P237X111-3N
$EndLIBRARY
