PCBNEW-LibModule-V1  2018-10-07 16:48:37
# encoding utf-8
Units mm
$INDEX
TL3305AF160QG
$EndINDEX
$MODULE TL3305AF160QG
Po 0 0 0 15 5bba2ad5 00000000 ~~
Li TL3305AF160QG
Cd TL3305AF160QG
Kw Switch
Sc 0
At SMD
AR 
Op 0 0 0
T0 -0.358 0.874 1.27 1.27 0 0.254 N V 21 N "S**"
T1 -0.358 0.874 1.27 1.27 0 0.254 N I 21 N "TL3305AF160QG"
DS -2.25 -2.25 2.25 -2.25 0.2 24
DS 2.25 -2.25 2.25 2.25 0.2 24
DS 2.25 2.25 -2.25 2.25 0.2 24
DS -2.25 2.25 -2.25 -2.25 0.2 24
DS -2.25 -2.25 2.25 -2.25 0.2 21
DS 2.25 -2.25 2.25 2.25 0.2 21
DS 2.25 2.25 -2.25 2.25 0.2 21
DS -2.25 2.25 -2.25 -2.25 0.2 21
DC -5.138 1.583 -5.207 1.583 0.254 21
$PAD
Po -3.6 1.5
Sh "1" R 1.4 1.6 0 0 900
At SMD N 00888000
Ne 0 ""
$EndPAD
$PAD
Po 3.6 1.5
Sh "2" R 1.4 1.6 0 0 900
At SMD N 00888000
Ne 0 ""
$EndPAD
$PAD
Po -3.6 -1.5
Sh "3" R 1.4 1.6 0 0 900
At SMD N 00888000
Ne 0 ""
$EndPAD
$PAD
Po 3.6 -1.5
Sh "4" R 1.4 1.6 0 0 900
At SMD N 00888000
Ne 0 ""
$EndPAD
$EndMODULE TL3305AF160QG
$EndLIBRARY
