PCBNEW-LibModule-V1  2018-10-06 21:29:57
# encoding utf-8
Units mm
$INDEX
SOT230P700X180-4N
$EndINDEX
$MODULE SOT230P700X180-4N
Po 0 0 0 15 5bb91b45 00000000 ~~
Li SOT230P700X180-4N
Cd DCY (R-PDSO-G4)
Kw Integrated Circuit
Sc 0
At SMD
AR 
Op 0 0 0
T0 0 0 1.27 1.27 0 0.254 N V 21 N "IC**"
T1 0 0 1.27 1.27 0 0.254 N I 21 N "SOT230P700X180-4N"
DS -4.275 -3.6 4.275 -3.6 0.05 24
DS 4.275 -3.6 4.275 3.6 0.05 24
DS 4.275 3.6 -4.275 3.6 0.05 24
DS -4.275 3.6 -4.275 -3.6 0.05 24
DS -1.75 -3.25 1.75 -3.25 0.1 24
DS 1.75 -3.25 1.75 3.25 0.1 24
DS 1.75 3.25 -1.75 3.25 0.1 24
DS -1.75 3.25 -1.75 -3.25 0.1 24
DS -1.75 -0.95 0.55 -3.25 0.1 24
DS -1.925 -3.25 1.925 -3.25 0.2 21
DS 1.925 -3.25 1.925 3.25 0.2 21
DS 1.925 3.25 -1.925 3.25 0.2 21
DS -1.925 3.25 -1.925 -3.25 0.2 21
DS -4.025 -3.125 -2.275 -3.125 0.2 21
$PAD
Po -3.15 -2.3
Sh "1" R 0.95 1.75 0 0 900
At SMD N 00888000
Ne 0 ""
$EndPAD
$PAD
Po -3.15 0
Sh "2" R 0.95 1.75 0 0 900
At SMD N 00888000
Ne 0 ""
$EndPAD
$PAD
Po -3.15 2.3
Sh "3" R 0.95 1.75 0 0 900
At SMD N 00888000
Ne 0 ""
$EndPAD
$PAD
Po 3.15 0
Sh "4" R 1.75 3.2 0 0 0
At SMD N 00888000
Ne 0 ""
$EndPAD
$EndMODULE SOT230P700X180-4N
$EndLIBRARY
