(module LRH9GPHZKX1_Fat_pads (layer F.Cu) (tedit 5C11A1B8)
  (descr "LR H9GP-HZKX-1-2")
  (tags LED)
  (attr smd)
  (fp_text reference LED1 (at 3.048 0 -270) (layer F.SilkS)
    (effects (font (size 1.27 1.27) (thickness 0.254)))
  )
  (fp_text value LR_H9GP-HZKX-1 (at 0.263 0) (layer F.SilkS) hide
    (effects (font (size 1.27 1.27) (thickness 0.254)))
  )
  (fp_line (start -1.875 -1.875) (end 1.875 -1.875) (layer Dwgs.User) (width 0.2))
  (fp_line (start 1.875 -1.875) (end 1.875 1.875) (layer Dwgs.User) (width 0.2))
  (fp_line (start 1.875 1.875) (end -1.875 1.875) (layer Dwgs.User) (width 0.2))
  (fp_line (start -1.875 1.875) (end -1.875 -1.875) (layer Dwgs.User) (width 0.2))
  (fp_line (start -1.875 -1.875) (end 1.875 -1.875) (layer F.SilkS) (width 0.1))
  (fp_line (start 1.875 -1.875) (end 1.875 1.875) (layer F.SilkS) (width 0.1))
  (fp_line (start 1.875 1.875) (end -1.875 1.875) (layer F.SilkS) (width 0.1))
  (fp_line (start -1.875 1.875) (end -1.875 -1.875) (layer F.SilkS) (width 0.1))
  (fp_line (start -2.575 -2.575) (end 3.1 -2.575) (layer Dwgs.User) (width 0.1))
  (fp_line (start 3.1 -2.575) (end 3.1 2.575) (layer Dwgs.User) (width 0.1))
  (fp_line (start 3.1 2.575) (end -2.575 2.575) (layer Dwgs.User) (width 0.1))
  (fp_line (start -2.575 2.575) (end -2.575 -2.575) (layer Dwgs.User) (width 0.1))
  (fp_line (start 2.3 -1) (end 2.3 -1) (layer F.SilkS) (width 0.2))
  (fp_line (start 2.3 -1.2) (end 2.3 -1.2) (layer F.SilkS) (width 0.2))
  (fp_arc (start 2.3 -1.1) (end 2.3 -1) (angle 180) (layer F.SilkS) (width 0.2))
  (fp_arc (start 2.3 -1.1) (end 2.3 -1.2) (angle 180) (layer F.SilkS) (width 0.2))
  (fp_poly (pts (xy 0 -0.254) (xy 2.032 -0.254) (xy 2.032 3.81) (xy -2.032 3.81)
    (xy -2.032 -0.254)) (layer F.Cu) (width 0.15))
  (fp_poly (pts (xy 0 -1.016) (xy 2.032 -1.016) (xy 2.032 -5.08) (xy -2.032 -5.08)
    (xy -2.032 -1.016)) (layer F.Cu) (width 0.15))
  (pad 1 smd rect (at 0 -1.125 90) (size 0.55 2.8) (layers F.Cu F.Paste F.Mask))
  (pad 2 smd rect (at 0 0 90) (size 1 2.8) (layers F.Cu F.Paste F.Mask))
  (pad 3 smd rect (at 0 1.125 90) (size 0.55 2.8) (layers F.Cu F.Paste F.Mask))
  (model "F:/dev/Cure Mannheim/kicad-library/3D/LR_H9GP_20130903_geometry.STEP"
    (offset (xyz 0 0 0.5))
    (scale (xyz 1 1 1))
    (rotate (xyz 0 0 0))
  )
)
